…
## Manipulando os dados

### Criando novas colunas: `mutate`, `transmute`

* O *data frame*^[Considere *data frame* como sinônimo de *tibble*. Na verdade, *tibbles* formam um superconjunto de *data frames*: todo *data frame* é uma *tibble*, mas nem toda *tibble* é um *data frame*.] `cars` tem dados (de $1920$!) sobre as distâncias de frenagem (em pés) de um carro viajando a diversas velocidades (em milhas por hora):

  
  ```r
  cars
  ```
  
  ```
  ## # A tibble: 50 x 2
  ##   speed  dist
  ##   <dbl> <dbl>
  ## 1     4     2
  ## 2     4    10
  ## 3     7     4
  ## 4     7    22
  ## 5     8    16
  ## 6     9    10
  ## # i 44 more rows
  ```

* Vamos criar colunas novas com os valores convertidos para km/h e metros; além disso, uma coluna com a taxa de frenagem:

  
  ```r
  cars %>% 
    mutate(
      velocidade = speed * 1.6,
      distancia = dist * .33,
      taxa = velocidade / distancia
    )
  ```
  
  ```
  ## # A tibble: 50 x 5
  ##   speed  dist velocidade distancia  taxa
  ##   <dbl> <dbl>      <dbl>     <dbl> <dbl>
  ## 1     4     2        6.4      0.66  9.70
  ## 2     4    10        6.4      3.3   1.94
  ## 3     7     4       11.2      1.32  8.48
  ## 4     7    22       11.2      7.26  1.54
  ## 5     8    16       12.8      5.28  2.42
  ## 6     9    10       14.4      3.3   4.36
  ## # i 44 more rows
  ```

* Perceba que as colunas antigas continuam lá. [Se quiser manter apenas as colunas novas, use `transmute`]{.hl}:

  
  ```r
  cars %>% 
    transmute(
      velocidade = speed * 1.6,
      distancia = dist * .33,
      taxa = velocidade / distancia
    )
  ```
  
  ```
  ## # A tibble: 50 x 3
  ##   velocidade distancia  taxa
  ##        <dbl>     <dbl> <dbl>
  ## 1        6.4      0.66  9.70
  ## 2        6.4      3.3   1.94
  ## 3       11.2      1.32  8.48
  ## 4       11.2      7.26  1.54
  ## 5       12.8      5.28  2.42
  ## 6       14.4      3.3   4.36
  ## # i 44 more rows
  ```
…
* Para eliminar as repetições:

  
  ```r
  bb_tidy %>% 
    select(artista) %>% 
    distinct()
  ```
  
  ```
  ## # A tibble: 228 x 1
  ##   artista     
  ##   <chr>       
  ## 1 2 Pac       
  ## 2 2Ge+her     
  ## 3 3 Doors Down
  ## 4 504 Boyz    
  ## 5 98^0        
  ## 6 A*Teens     
  ## # i 222 more rows
  ```

* Para ver artistas e músicas:

  
  ```r
  bb_tidy %>% 
    select(artista, musica) %>% 
    distinct()
  ```
  
  ```
  ## # A tibble: 317 x 2
  ##   artista      musica                 
  ##   <chr>        <chr>                  
  ## 1 2 Pac        Baby Don't Cry (Keep...
  ## 2 2Ge+her      The Hardest Part Of ...
  ## 3 3 Doors Down Kryptonite             
  ## 4 3 Doors Down Loser                  
  ## 5 504 Boyz     Wobble Wobble          
  ## 6 98^0         Give Me Just One Nig...
  ## # i 311 more rows
  ```
…
### Filtrando linhas: `filter`, `slice`

* Apenas as músicas da Britney Spears:

  
  ```r
  bb_tidy %>% 
    filter(artista == 'Spears, Britney')
  ```
  
  ```
  ## # A tibble: 51 x 5
  ##   artista         musica                  entrou     semana   pos
  ##   <chr>           <chr>                   <date>      <int> <dbl>
  ## 1 Spears, Britney From The Bottom Of M... 2000-01-29      1    76
  ## 2 Spears, Britney From The Bottom Of M... 2000-01-29      2    59
  ## 3 Spears, Britney From The Bottom Of M... 2000-01-29      3    52
  ## 4 Spears, Britney From The Bottom Of M... 2000-01-29      4    52
  ## 5 Spears, Britney From The Bottom Of M... 2000-01-29      5    14
  ## 6 Spears, Britney From The Bottom Of M... 2000-01-29      6    14
  ## # i 45 more rows
  ```

* Apenas músicas que chegaram à posição $1$, sem mostrar a coluna `pos`:

  
  ```r
  bb_tidy %>% 
    filter(pos == 1) %>% 
    select(-pos)
  ```
  
  ```
  ## # A tibble: 55 x 4
  ##   artista             musica                  entrou     semana
  ##   <chr>               <chr>                   <date>      <int>
  ## 1 Aaliyah             Try Again               2000-03-18     14
  ## 2 Aguilera, Christina Come On Over Baby (A... 2000-08-05     11
  ## 3 Aguilera, Christina Come On Over Baby (A... 2000-08-05     12
  ## 4 Aguilera, Christina Come On Over Baby (A... 2000-08-05     13
  ## 5 Aguilera, Christina Come On Over Baby (A... 2000-08-05     14
  ## 6 Aguilera, Christina What A Girl Wants       1999-11-27      8
  ## # i 49 more rows
  ```
…
* De acordo com a [ordenação de uma coluna]{.hl} ou [de uma função das colunas]{.hl}:
  
  
  ```r
  bb_tidy %>% 
    slice_min(pos)
  ```
  
  ```
  ## # A tibble: 55 x 5
  ##   artista             musica                  entrou     semana   pos
  ##   <chr>               <chr>                   <date>      <int> <dbl>
  ## 1 Aaliyah             Try Again               2000-03-18     14     1
  ## 2 Aguilera, Christina Come On Over Baby (A... 2000-08-05     11     1
  ## 3 Aguilera, Christina Come On Over Baby (A... 2000-08-05     12     1
  ## 4 Aguilera, Christina Come On Over Baby (A... 2000-08-05     13     1
  ## 5 Aguilera, Christina Come On Over Baby (A... 2000-08-05     14     1
  ## 6 Aguilera, Christina What A Girl Wants       1999-11-27      8     1
  ## # i 49 more rows
  ```
…
### Ordenando linhas: `arrange`

* Por título, sem repetições:

  
  ```r
  bb_tidy %>% 
    select(musica) %>% 
    distinct() %>% 
    arrange(musica)
  ```
  
  ```
  ## # A tibble: 316 x 1
  ##   musica                 
  ##   <chr>                  
  ## 1 (Hot S**t) Country G...
  ## 2 3 Little Words         
  ## 3 911                    
  ## 4 A Country Boy Can Su...
  ## 5 A Little Gasoline      
  ## 6 A Puro Dolor (Purest...
  ## # i 310 more rows
  ```

* Por título, sem repetições, em ordem inversa:

  
  ```r
  bb_tidy %>% 
    select(musica) %>% 
    distinct() %>% 
    arrange(desc(musica))
  ```
  
  ```
  ## # A tibble: 316 x 1
  ##   musica                 
  ##   <chr>                  
  ## 1 www.memory             
  ## 2 Your Everything        
  ## 3 You're A God           
  ## 4 You'll Always Be Lov...
  ## 5 You Won't Be Lonely ...
  ## 6 You Should've Told M...
  ## # i 310 more rows
  ```


### Contando linhas: `count`

* Quantas semanas cada artista ficou nos *top* $100$? Duas músicas na mesma semana contam como duas semanas.

  
  ```r
  bb_tidy %>% 
    count(artista, sort = TRUE)
  ```
  
  ```
  ## # A tibble: 228 x 2
  ##   artista             n
  ##   <chr>           <int>
  ## 1 Creed             104
  ## 2 Lonestar           95
  ## 3 Destiny's Child    92
  ## 4 N'Sync             74
  ## 5 Sisqo              74
  ## 6 3 Doors Down       73
  ## # i 222 more rows
  ```

* Quantas semanas cada música ficou nos *top* $100$?

  
  ```r
  bb_tidy %>% 
    count(musica, sort = TRUE)
  ```
  
  ```
  ## # A tibble: 316 x 2
  ##   musica                  n
  ##   <chr>               <int>
  ## 1 Higher                 57
  ## 2 Amazed                 55
  ## 3 Breathe                53
  ## 4 Kryptonite             53
  ## 5 With Arms Wide Open    47
  ## 6 I Wanna Know           44
  ## # i 310 more rows
  ```

* Se houve músicas com o mesmo nome, mas de artistas diferentes, [o código acima está errado]{.hl}. O certo é

  
  ```r
  bb_tidy %>% 
    count(musica, artista, sort = TRUE)
  ```
  
  ```
  ## # A tibble: 317 x 3
  ##   musica              artista          n
  ##   <chr>               <chr>        <int>
  ## 1 Higher              Creed           57
  ## 2 Amazed              Lonestar        55
  ## 3 Breathe             Hill, Faith     53
  ## 4 Kryptonite          3 Doors Down    53
  ## 5 With Arms Wide Open Creed           47
  ## 6 I Wanna Know        Joe             44
  ## # i 311 more rows
  ```
…
### Agrupando linhas: `group_by` e `summarize`

* Qual foi a melhor posição que cada artista alcançou?

  
  ```r
  bb_tidy %>% 
    group_by(artista) %>% 
    summarize(melhor = min(pos)) %>% 
    arrange(melhor)
  ```
  
  ```
  ## # A tibble: 228 x 2
  ##   artista             melhor
  ##   <chr>                <dbl>
  ## 1 Aaliyah                  1
  ## 2 Aguilera, Christina      1
  ## 3 Carey, Mariah            1
  ## 4 Creed                    1
  ## 5 Destiny's Child          1
  ## 6 Iglesias, Enrique        1
  ## # i 222 more rows
  ```
…
  
  ```r
  bb_tidy %>% 
    group_by(artista, musica) %>% 
    summarize(melhor = min(pos)) %>% 
    arrange(melhor)
  ```
  
  ```
  ## `summarise()` has grouped output by 'artista'. You can override using
  ## the `.groups` argument.
  ```
  
  ```
  ## # A tibble: 317 x 3
  ##   artista             musica                  melhor
  ##   <chr>               <chr>                    <dbl>
  ## 1 Aaliyah             Try Again                    1
  ## 2 Aguilera, Christina Come On Over Baby (A...      1
  ## 3 Aguilera, Christina What A Girl Wants            1
  ## 4 Carey, Mariah       Thank God I Found Yo...      1
  ## 5 Creed               With Arms Wide Open          1
  ## 6 Destiny's Child     Independent Women Pa...      1
  ## # i 311 more rows
  ```
…
* Quantas semanas cada artista ficou na posição $1$? 

  A função `n()` é uma maneira conveniente de [obter o número de linhas de um grupo]{.hl} (ou, se não houver agrupamento, de toda a *tibble*); mas [`n()` só pode ser chamada em certos contextos]{.hl}, como `summarise()` ou `mutate()`.

  
  ```r
  bb_tidy %>% 
    filter(pos == 1) %>% 
    group_by(artista) %>%
    summarize(semanas = n()) %>% 
    arrange(desc(semanas))
  ```
  
  ```
  ## # A tibble: 15 x 2
  ##   artista             semanas
  ##   <chr>                 <int>
  ## 1 Destiny's Child          14
  ## 2 Santana                  10
  ## 3 Aguilera, Christina       6
  ## 4 Madonna                   4
  ## 5 Savage Garden             4
  ## 6 Iglesias, Enrique         3
  ## # i 9 more rows
  ```

* Perceba que `count`, que vimos mais acima, faz agrupamentos do mesmo modo:

  
  ```r
  bb_tidy %>% 
    filter(pos == 1) %>% 
    count(artista, sort = TRUE)
  ```
  
  ```
  ## # A tibble: 15 x 2
  ##   artista                 n
  ##   <chr>               <int>
  ## 1 Destiny's Child        14
  ## 2 Santana                10
  ## 3 Aguilera, Christina     6
  ## 4 Madonna                 4
  ## 5 Savage Garden           4
  ## 6 Iglesias, Enrique       3
  ## # i 9 more rows
  ```

* Uma pergunta diferente: quais são os artistas cujas músicas apareceram no *top* $100$ mais tempo depois do lançamento da música?

  
  ```r
  bb_tidy %>% 
    group_by(artista) %>% 
    summarize(semanas = max(semana)) %>% 
    arrange(desc(semanas))
  ```
  
  ```
  ## # A tibble: 228 x 2
  ##   artista          semanas
  ##   <chr>              <int>
  ## 1 Creed                 65
  ## 2 Lonestar              64
  ## 3 3 Doors Down          53
  ## 4 Hill, Faith           53
  ## 5 Joe                   44
  ## 6 Vertical Horizon      41
  ## # i 222 more rows
  ```
…
    
    ```r
    media1 <- bb_tidy %>% 
      group_by(artista, musica) %>% 
      summarize(media = mean(pos), .groups = 'drop') %>% 
      arrange(media)
    ```

  
  ```r
  media1
  ```
  
  ```
  ## # A tibble: 317 x 3
  ##   artista                          musica                  media
  ##   <chr>                            <chr>                   <dbl>
  ## 1 "Santana"                        Maria, Maria             10.5
  ## 2 "Madonna"                        Music                    13.5
  ## 3 "N'Sync"                         Bye Bye Bye              14.3
  ## 4 "Elliott, Missy \"Misdemeanor\"" Hot Boyz                 14.3
  ## 5 "Destiny's Child"                Independent Women Pa...  14.8
  ## 6 "Iglesias, Enrique"              Be With You              15.8
  ## # i 311 more rows
  ```
…
    
    ```r
    media2 <- bb_tidy %>% 
      group_by(artista, musica) %>% 
      summarize(media = sum(pos)/max(semana), .groups = 'drop') %>% 
      arrange(media)
    ```
    
  
  ```r
  media2
  ```
  
  ```
  ## # A tibble: 317 x 3
  ##   artista                          musica                  media
  ##   <chr>                            <chr>                   <dbl>
  ## 1 "Santana"                        Maria, Maria             10.5
  ## 2 "Madonna"                        Music                    13.5
  ## 3 "N'Sync"                         Bye Bye Bye              14.3
  ## 4 "Elliott, Missy \"Misdemeanor\"" Hot Boyz                 14.3
  ## 5 "Destiny's Child"                Independent Women Pa...  14.8
  ## 6 "Iglesias, Enrique"              Be With You              15.8
  ## # i 311 more rows
  ```
…
1. Existem heróis que aparecem em mais de uma linha?

   
     \begin{comment}

   
   
   ```r
   herois_info %>% 
     count(nome)
   ```
   
   ```
   ## # A tibble: 715 x 2
   ##   nome              n
   ##   <chr>         <int>
   ## 1 A-Bomb            1
   ## 2 Abe Sapien        1
   ## 3 Abin Sur          1
   ## 4 Abomination       1
   ## 5 Abraxas           1
   ## 6 Absorbing Man     1
   ## # i 709 more rows
   ```
   Precisaríamos [examinar a tabela acima]{.hl}, procurando linhas com $n > 1$. 
   
   [Vamos pedir para o R fazer isto:]{.hl}
   
   
   ```r
   repetidos <- herois_info %>% 
     count(nome) %>% 
     filter(n > 1)
   
   repetidos
   ```
   
   ```
   ## # A tibble: 17 x 2
   ##   nome             n
   ##   <chr>        <int>
   ## 1 Angel            2
   ## 2 Atlas            2
   ## 3 Atom             2
   ## 4 Batgirl          2
   ## 5 Batman           2
   ## 6 Black Canary     2
   ## # i 11 more rows
   ```
   
   Vamos mostrar mais dados destes heróis:
   
   
   ```r
   herois_info %>% 
     filter(nome %in% repetidos$nome) %>% 
     select(nome, editora, raça, everything())
   ```
   
   ```
   ## # A tibble: 36 x 10
   ##   nome  editora      raça  sexo  olhos cabelos altura pele  lado   peso
   ##   <chr> <chr>        <chr> <chr> <chr> <chr>    <dbl> <chr> <chr> <dbl>
   ## 1 Angel Marvel Comi~ <NA>  Male  blue  Blond      183 <NA>  good     68
   ## 2 Angel Dark Horse ~ Vamp~ Male  <NA>  <NA>       -99 <NA>  good    -99
   ## 3 Atlas Marvel Comi~ Muta~ Male  brown Red        183 <NA>  good    101
   ## 4 Atlas DC Comics    God ~ Male  blue  Brown      198 <NA>  bad     126
   ## 5 Atom  DC Comics    <NA>  Male  blue  Red        178 <NA>  good     68
   ## 6 Atom  DC Comics    <NA>  Male  <NA>  <NA>       -99 <NA>  good    -99
   ## # i 30 more rows
   ```
…
1. Quantas editoras diferentes existem na *tibble*? Liste-as em ordem decrescente de quantidade de heróis.

   
     \begin{comment}

     
   
   ```r
   herois_info %>% count(editora, sort = TRUE)
   ```
   
   ```
   ## # A tibble: 25 x 2
   ##   editora               n
   ##   <chr>             <int>
   ## 1 Marvel Comics       388
   ## 2 DC Comics           215
   ## 3 NBC - Heroes         19
   ## 4 Dark Horse Comics    18
   ## 5 <NA>                 15
   ## 6 George Lucas         14
   ## # i 19 more rows
   ```
…
1. Existem heróis sem informação de sexo? Quantos? Para estes heróis, coloque o valor 'Desconhecido' na coluna `sexo`.

   
     \begin{comment}

   
   
   ```r
   herois_info %>% filter(is.na(sexo))
   ```
   
   ```
   ## # A tibble: 29 x 10
   ##   nome       sexo  olhos raça  cabelos altura editora pele  lado   peso
   ##   <chr>      <chr> <chr> <chr> <chr>    <dbl> <chr>   <chr> <chr> <dbl>
   ## 1 Bird-Brain <NA>  <NA>  <NA>  <NA>       -99 Marvel  <NA>  good    -99
   ## 2 Blaquesmi~ <NA>  black <NA>  No Hair    -99 Marvel  <NA>  good    -99
   ## 3 Box III    <NA>  blue  <NA>  Blond      193 Marvel  <NA>  good    110
   ## 4 Box IV     <NA>  brown <NA>  Brown ~    -99 Marvel  <NA>  good    -99
   ## 5 Captain U~ <NA>  <NA>  God ~ <NA>       -99 Marvel  <NA>  good    -99
   ## 6 Cecilia R~ <NA>  brown <NA>  Brown      170 Marvel  <NA>  good     62
   ## # i 23 more rows
   ```
…
   
     \begin{comment}

   
   
   ```r
   herois_info %>% 
     group_by(sexo) %>% 
     slice_max(altura, n = 3) %>% 
     select(nome, sexo, altura)
   ```
   
   ```
   ## # A tibble: 11 x 3
   ##   nome          sexo         altura
   ##   <chr>         <chr>         <dbl>
   ## 1 Living Brain  Desconhecido    198
   ## 2 Fabian Cortez Desconhecido    196
   ## 3 Box III       Desconhecido    193
   ## 4 Firelord      Desconhecido    193
   ## 5 Wolfsbane     Female          366
   ## 6 Rey           Female          297
   ## # i 5 more rows
   ```
…
   
     \begin{comment}

   
   
   ```r
   herois_info %>% 
     group_by(sexo) %>% 
     count(olhos, sort = TRUE) %>% 
     slice_head(n = 3)
   ```
   
   ```
   ## # A tibble: 9 x 3
   ##   sexo         olhos     n
   ##   <chr>        <chr> <int>
   ## 1 Desconhecido <NA>     10
   ## 2 Desconhecido blue      6
   ## 3 Desconhecido red       5
   ## 4 Female       blue     76
   ## 5 Female       green    43
   ## 6 Female       <NA>     41
   ## # i 3 more rows
   ```
…
1. Liste, por editora, as quantidades de heróis do bem, do mal, e neutros.

   
     \begin{comment}

   
   
   ```r
   herois_info %>% 
     group_by(editora) %>% 
     count(lado)
   ```
   
   ```
   ## # A tibble: 11 x 3
   ##   editora lado        n
   ##   <chr>   <chr>   <int>
   ## 1 DC      bad        59
   ## 2 DC      good      142
   ## 3 DC      neutral    13
   ## 4 DC      <NA>        1
   ## 5 Marvel  bad       115
   ## 6 Marvel  good      259
   ## # i 5 more rows
   ```
…
   
   ```r
   herois_info %>% 
     group_by(editora, lado) %>% 
     summarize(n())
   ```
   
   ```
   ## `summarise()` has grouped output by 'editora'. You can override using
   ## the `.groups` argument.
   ```
   
   ```
   ## # A tibble: 11 x 3
   ##   editora lado    `n()`
   ##   <chr>   <chr>   <int>
   ## 1 DC      bad        59
   ## 2 DC      good      142
   ## 3 DC      neutral    13
   ## 4 DC      <NA>        1
   ## 5 Marvel  bad       115
   ## 6 Marvel  good      259
   ## # i 5 more rows
   ```
…
   ```
   ## [1] 62
   ```
   
   ou (mostrando os nomes das raças e as quantidades de heróis por raça)

   
   ```r
   herois_info %>% 
     count(raça)
   ```
   
   ```
   ## # A tibble: 62 x 2
   ##   raça          n
   ##   <chr>     <int>
   ## 1 Alien         7
   ## 2 Alpha         5
   ## 3 Amazon        2
   ## 4 Android       9
   ## 5 Animal        4
   ## 6 Asgardian     5
   ## # i 56 more rows
   ```
   
   ou 
   
   
   ```r
   herois_info %>% 
     group_by(raça) %>% 
     summarise(n())
   ```
   
   ```
   ## # A tibble: 62 x 2
   ##   raça      `n()`
   ##   <chr>     <int>
   ## 1 Alien         7
   ## 2 Alpha         5
   ## 3 Amazon        2
   ## 4 Android       9
   ## 5 Animal        4
   ## 6 Asgardian     5
   ## # i 56 more rows
   ```
…
    ```
    ## 3. summarize(media = sum(pos)/max(semana), .groups = "drop")
    ```
    
    ```
    ## # A tibble: 317 x 3
    ##   artista      musica                  media
    ##   <chr>        <chr>                   <dbl>
    ## 1 2 Pac        Baby Don't Cry (Keep...  85.4
    ## 2 2Ge+her      The Hardest Part Of ...  90  
    ## 3 3 Doors Down Kryptonite               26.5
    ## 4 3 Doors Down Loser                    67.1
    ## 5 504 Boyz     Wobble Wobble            56.2
    ## 6 98^0         Give Me Just One Nig...  37.6
    ## # i 311 more rows
    ```
    
    ```
    ## 4. arrange(media)
    ```
    
    ```
    ## # A tibble: 317 x 3
    ##   artista                          musica                  media
    ##   <chr>                            <chr>                   <dbl>
    ## 1 "Santana"                        Maria, Maria             10.5
    ## 2 "Madonna"                        Music                    13.5
    ## 3 "N'Sync"                         Bye Bye Bye              14.3
    ## 4 "Elliott, Missy \"Misdemeanor\"" Hot Boyz                 14.3
    ## 5 "Destiny's Child"                Independent Women Pa...  14.8
    ## 6 "Iglesias, Enrique"              Be With You              15.8
    ## # i 311 more rows
    ```
…
