Capítulo 3 Introdução ao tidyverse | Probabilidade e Estatística com R
…
## # A tibble: 5.307 × 5
##   artista musica                  entrou     semana   pos
##   <chr>   <chr>                   <date>      <int> <dbl>
## 1 2 Pac   Baby Don't Cry (Keep... 2000-02-26      1    87
## 2 2 Pac   Baby Don't Cry (Keep... 2000-02-26      2    82
## 3 2 Pac   Baby Don't Cry (Keep... 2000-02-26      3    72
## 4 2 Pac   Baby Don't Cry (Keep... 2000-02-26      4    77
## 5 2 Pac   Baby Don't Cry (Keep... 2000-02-26      5    87
## 6 2 Pac   Baby Don't Cry (Keep... 2000-02-26      6    94
## # ℹ 5.301 more rows

## 3. summarize(media = sum(pos)/max(semana), .groups = "drop")

## # A tibble: 317 × 3
##   artista      musica                  media
##   <chr>        <chr>                   <dbl>
## 1 2 Pac        Baby Don't Cry (Keep...  85.4
## 2 2Ge+her      The Hardest Part Of ...  90  
## 3 3 Doors Down Kryptonite               26.5
## 4 3 Doors Down Loser                    67.1
## 5 504 Boyz     Wobble Wobble            56.2
## 6 98^0         Give Me Just One Nig...  37.6
## # ℹ 311 more rows

## 4. arrange(media)

## # A tibble: 317 × 3
##   artista                          musica                  media
##   <chr>                            <chr>                   <dbl>
## 1 "Santana"                        Maria, Maria             10.5
## 2 "Madonna"                        Music                    13.5
## 3 "N'Sync"                         Bye Bye Bye              14.3
## 4 "Elliott, Missy \"Misdemeanor\"" Hot Boyz                 14.3
## 5 "Destiny's Child"                Independent Women Pa...  14.8
## 6 "Iglesias, Enrique"              Be With You              15.8
## # ℹ 311 more rows
…
